{
	"AUTH_FAIL": "Invalid Credentials!",
	"CREATE_ERR": "Error encountered during creation: %P%",
	"CREATE_SUCCESS": "Record created successfully",
	"EXEC_CREATE": "Save operation performed for %P%",
	"EXEC_READ": "Read operation performed for %P%",
	"EXEC_PAGINATION": "Pagination operation performed for %P%, current page: %P%",
	"EXEC_SVC": "In Service %P%",
	"EXEC_UPDATE": "Update operation performed for %P%",
	"INTERNAL_SERVER_ERR": "Internal server error",
	"LOAD_ERR": "Error encountered loading data: %P%",
	"LOGIN": "%P% has logged in successfully",
	"LOGOUT": "%P% has logged out successfully",
	"MODAL_DISMISS": "Modal dismissed at %P%",
	"NOT_FOUND": "URI could not be reached",
	"PRE_ERR_STACK": "Call resulted in the following error:",
	"SELECTED_RECORD": "%P% has been selected",
	"SERVER_CNCT_ERR": "Could not connect to server",
	"UPDATE_ERR": "Error encountered during updation: %P%",
	"UPDATE_SUCCESS": "Record updated successfully",
	"DELETE_ERR": "Error encountered during deletion: %P%",
	"DELETE_SUCCESS": "Record deleted successfully",
	"INPUT_MODAL_ACTION": "OK",
	"INPUT_MODAL_BODY": "Enter value: ",
	"INPUT_MODAL_CLOSE": "Cancel",
	"INPUT_MODAL_HEADER": "Input",
	"CONFIRM_MODAL_ACTION": "OK",
	"CONFIRM_MODAL_BODY": "Are you sure?",
	"CONFIRM_MODAL_CLOSE": "Cancel",
	"CONFIRM_MODAL_HEADER": "Confirm",
	"REPORT_MODAL_ACTION": "OK",
	"REPORT_MODAL_BODY": "Please select report format: ",
	"REPORT_MODAL_CLOSE": "Cancel",
	"REPORT_MODAL_HEADER": "Report formats"
}
