<?xml version="1.0" encoding="utf-8"?>
<!-- Generator: Adobe Illustrator 21.1.0, SVG Export Plug-In . SVG Version: 6.00 Build 0)  -->
<svg version="1.1" id="Layer_1" xmlns="http://www.w3.org/2000/svg" xmlns:xlink="http://www.w3.org/1999/xlink" x="0px" y="0px"
	 viewBox="0 0 9.5 8.4" style="enable-background:new 0 0 9.5 8.4;" xml:space="preserve">
<style type="text/css">
	.st0{fill:none;stroke:#BCA98F;stroke-linecap:round;stroke-miterlimit:10;}
</style>
<circle class="st0" cx="3.5" cy="3.5" r="3"/>
</svg>
